<svg xmlns="http://www.w3.org/2000/svg" width="72" height="72" viewBox="0 0 72 72">
    <g fill="none" fill-rule="evenodd">
        <g fill="#00A59C">
            <g>
                <path d="M250.702 59.286c.085.064.16.14.225.224l17.72 23.423.01-.012.38.527 1.03 1.363-.047-.001 15.619 21.627c.195.27.256.596.197.899.012.253-.06.513-.222.734l-16.42 22.404c-.068.091-.148.172-.238.24-.51.384-1.236.282-1.62-.229l-16.85-22.404c-.151-.2-.233-.444-.233-.695 0-.099.013-.195.036-.287v.015c0-.255.085-.504.242-.706l16.667-21.598h-34.507l16.776 21.595c.179.23.257.507.241.776.055.31-.016.64-.222.91l-17.222 22.404c-.07.09-.151.169-.243.235-.52.372-1.242.252-1.613-.267l-16.05-22.403c-.141-.197-.217-.432-.217-.674 0-.066.006-.132.016-.195l-.002-.077c0-.243.077-.48.22-.678L230.03 84.81h-.09l19.142-25.3c.385-.509 1.11-.61 1.619-.224z" transform="translate(-924.000000, -294.000000) translate(710.000000, 235.000000)"/>
            </g>
        </g>
    </g>
</svg>
