
{
  "header": {
    "reportVersion": 1,
    "event": "Allocation failed - JavaScript heap out of memory",
    "trigger": "FatalError",
    "filename": "report.20210425.171552.7640.0.001.json",
    "dumpEventTime": "2021-04-25T17:15:52Z",
    "dumpEventTimeStamp": "1619360152083",
    "processId": 7640,
    "cwd": "C:\\projects\\Algo",
    "commandLine": [
      "C:\\dev\\nodejs\\node.exe",
      "C:\\projects\\Algo\\node_modules\\jest-worker\\build\\workers\\processChild.js"
    ],
    "nodejsVersion": "v12.13.0",
    "wordSize": 64,
    "arch": "x64",
    "platform": "win32",
    "componentVersions": {
      "node": "12.13.0",
      "v8": "7.7.299.13-node.12",
      "uv": "1.32.0",
      "zlib": "1.2.11",
      "brotli": "1.0.7",
      "ares": "1.15.0",
      "modules": "72",
      "nghttp2": "1.39.2",
      "napi": "5",
      "llhttp": "1.1.4",
      "http_parser": "2.8.0",
      "openssl": "1.1.1d",
      "cldr": "35.1",
      "icu": "64.2",
      "tz": "2019a",
      "unicode": "12.1"
    },
    "release": {
      "name": "node",
      "lts": "Erbium",
      "headersUrl": "https://nodejs.org/download/release/v12.13.0/node-v12.13.0-headers.tar.gz",
      "sourceUrl": "https://nodejs.org/download/release/v12.13.0/node-v12.13.0.tar.gz",
      "libUrl": "https://nodejs.org/download/release/v12.13.0/win-x64/node.lib"
    },
    "osName": "Windows_NT",
    "osRelease": "10.0.19042",
    "osVersion": "Windows 10 Home",
    "osMachine": "x86_64",
    "cpus": [
      {
        "model": "Intel(R) Core(TM) i3-9100 CPU @ 3.60GHz",
        "speed": 3600,
        "user": 56428343,
        "nice": 0,
        "sys": 45984984,
        "idle": 768666359,
        "irq": 2547671
      },
      {
        "model": "Intel(R) Core(TM) i3-9100 CPU @ 3.60GHz",
        "speed": 3600,
        "user": 65637796,
        "nice": 0,
        "sys": 46414968,
        "idle": 759026953,
        "irq": 344562
      },
      {
        "model": "Intel(R) Core(TM) i3-9100 CPU @ 3.60GHz",
        "speed": 3600,
        "user": 62592875,
        "nice": 0,
        "sys": 40097984,
        "idle": 768388718,
        "irq": 319812
      },
      {
        "model": "Intel(R) Core(TM) i3-9100 CPU @ 3.60GHz",
        "speed": 3600,
        "user": 65785593,
        "nice": 0,
        "sys": 40403781,
        "idle": 764890218,
        "irq": 288031
      }
    ],
    "networkInterfaces": [
      {
        "name": "‏‏Ethernet",
        "internal": false,
        "mac": "0c:9d:92:7a:0a:3c",
        "address": "fe80::cd3e:2905:3892:a2cf",
        "netmask": "ffff:ffff:ffff:ffff::",
        "family": "IPv6",
        "scopeid": 13
      },
      {
        "name": "‏‏Ethernet",
        "internal": false,
        "mac": "0c:9d:92:7a:0a:3c",
        "address": "172.16.26.71",
        "netmask": "255.255.0.0",
        "family": "IPv4"
      },
      {
        "name": "Loopback Pseudo-Interface 1",
        "internal": true,
        "mac": "00:00:00:00:00:00",
        "address": "::1",
        "netmask": "ffff:ffff:ffff:ffff:ffff:ffff:ffff:ffff",
        "family": "IPv6",
        "scopeid": 0
      },
      {
        "name": "Loopback Pseudo-Interface 1",
        "internal": true,
        "mac": "00:00:00:00:00:00",
        "address": "127.0.0.1",
        "netmask": "255.0.0.0",
        "family": "IPv4"
      }
    ],
    "host": "DESKTOP-2HER3ES"
  },
  "javascriptStack": {
    "message": "No stack.",
    "stack": [
      "Unavailable."
    ]
  },
  "nativeStack": [
    {
      "pc": "0x00007ff7b11a1389",
      "symbol": "std::basic_ostream<char,std::char_traits<char> >::operator<<+10873"
    },
    {
      "pc": "0x00007ff7b11a57cc",
      "symbol": "std::basic_ostream<char,std::char_traits<char> >::operator<<+28348"
    },
    {
      "pc": "0x00007ff7b11a4778",
      "symbol": "std::basic_ostream<char,std::char_traits<char> >::operator<<+24168"
    },
    {
      "pc": "0x00007ff7b129332b",
      "symbol": "v8::base::CPU::has_sse+37723"
    },
    {
      "pc": "0x00007ff7b1a96f4e",
      "symbol": "v8::Isolate::ReportExternalAllocationLimitReached+94"
    },
    {
      "pc": "0x00007ff7b1a7ef91",
      "symbol": "v8::SharedArrayBuffer::Externalize+833"
    },
    {
      "pc": "0x00007ff7b194c85c",
      "symbol": "v8::internal::Heap::EphemeronKeyWriteBarrierFromCode+1436"
    },
    {
      "pc": "0x00007ff7b1957c00",
      "symbol": "v8::internal::Heap::ProtectUnprotectedMemoryChunks+1312"
    },
    {
      "pc": "0x00007ff7b1954734",
      "symbol": "v8::internal::Heap::PageFlagsAreConsistent+3204"
    },
    {
      "pc": "0x00007ff7b1949fc3",
      "symbol": "v8::internal::Heap::CollectGarbage+1283"
    },
    {
      "pc": "0x00007ff7b1948794",
      "symbol": "v8::internal::Heap::AddRetainedMap+2356"
    },
    {
      "pc": "0x00007ff7b1969a65",
      "symbol": "v8::internal::Factory::NewFillerObject+53"
    },
    {
      "pc": "0x00007ff7b16d6239",
      "symbol": "v8::internal::interpreter::JumpTableTargetOffsets::iterator::operator=+4057"
    },
    {
      "pc": "0x00007ff7b1ec2c6d",
      "symbol": "v8::internal::SetupIsolateDelegate::SetupHeap+567949"
    },
    {
      "pc": "0x00007ff7b1ea2daa",
      "symbol": "v8::internal::SetupIsolateDelegate::SetupHeap+437194"
    },
    {
      "pc": "0x00007ff7b1eb028f",
      "symbol": "v8::internal::SetupIsolateDelegate::SetupHeap+491695"
    },
    {
      "pc": "0x0000002f347ec343",
      "symbol": ""
    }
  ],
  "javascriptHeap": {
    "totalMemory": 2113216512,
    "totalCommittedMemory": 2113216512,
    "usedMemory": 1928537376,
    "availableMemory": 125896496,
    "memoryLimit": 2197815296,
    "heapSpaces": {
      "read_only_space": {
        "memorySize": 262144,
        "committedMemory": 262144,
        "capacity": 261872,
        "used": 32296,
        "available": 229576
      },
      "new_space": {
        "memorySize": 33554432,
        "committedMemory": 33554432,
        "capacity": 16759808,
        "used": 602680,
        "available": 16157128
      },
      "old_space": {
        "memorySize": 1312665600,
        "committedMemory": 1312665600,
        "capacity": 1183488720,
        "used": 1175337520,
        "available": 8151200
      },
      "code_space": {
        "memorySize": 1474560,
        "committedMemory": 1474560,
        "capacity": 867392,
        "used": 867392,
        "available": 0
      },
      "map_space": {
        "memorySize": 14159872,
        "committedMemory": 14159872,
        "capacity": 736160,
        "used": 736160,
        "available": 0
      },
      "large_object_space": {
        "memorySize": 751050752,
        "committedMemory": 751050752,
        "capacity": 750957776,
        "used": 750957776,
        "available": 0
      },
      "code_large_object_space": {
        "memorySize": 49152,
        "committedMemory": 49152,
        "capacity": 3552,
        "used": 3552,
        "available": 0
      },
      "new_large_object_space": {
        "memorySize": 0,
        "committedMemory": 0,
        "capacity": 16759808,
        "used": 0,
        "available": 16759808
      }
    }
  },
  "resourceUsage": {
    "userCpuSeconds": 128.984,
    "kernelCpuSeconds": 2.531,
    "cpuConsumptionPercent": 151.167,
    "maxRss": 2434486272,
    "pageFaults": {
      "IORequired": 1533607,
      "IONotRequired": 0
    },
    "fsActivity": {
      "reads": 24,
      "writes": 110
    }
  },
  "libuv": [
  ],
  "environmentVariables": {
    "ALLUSERSPROFILE": "C:\\ProgramData",
    "APPDATA": "C:\\Users\\drago\\AppData\\Roaming",
    "CHROME_CRASHPAD_PIPE_NAME": "\\\\.\\pipe\\crashpad_9016_BVHOBEMELWHIGWNR",
    "COLORTERM": "truecolor",
    "COMMONPROGRAMFILES": "C:\\Program Files\\Common Files",
    "CommonProgramFiles(x86)": "C:\\Program Files (x86)\\Common Files",
    "CommonProgramW6432": "C:\\Program Files\\Common Files",
    "COMPUTERNAME": "DESKTOP-2HER3ES",
    "COMSPEC": "C:\\WINDOWS\\system32\\cmd.exe",
    "dp0": "C:\\projects\\Algo\\node_modules\\.bin\\",
    "DriverData": "C:\\Windows\\System32\\Drivers\\DriverData",
    "EXEPATH": "C:\\Program Files\\Git\\bin",
    "FORCE_COLOR": "1",
    "FPS_BROWSER_APP_PROFILE_STRING": "Internet Explorer",
    "FPS_BROWSER_USER_PROFILE_STRING": "Default",
    "GIT_ASKPASS": "c:\\Users\\drago\\AppData\\Local\\Programs\\Microsoft VS Code\\resources\\app\\extensions\\git\\dist\\askpass.sh",
    "HOME": "C:\\Users\\drago",
    "HOMEDRIVE": "C:",
    "HOMEPATH": "\\Users\\drago",
    "INIT_CWD": "C:\\projects\\Algo",
    "JEST_WORKER_ID": "2",
    "LANG": "en_US.UTF-8",
    "LOCALAPPDATA": "C:\\Users\\drago\\AppData\\Local",
    "LOGONSERVER": "\\\\DESKTOP-2HER3ES",
    "MSYSTEM": "MINGW64",
    "NODE": "C:\\dev\\nodejs\\node.exe",
    "npm_config_access": "",
    "npm_config_allow_same_version": "",
    "npm_config_also": "",
    "npm_config_always_auth": "",
    "npm_config_argv": "{\"remain\":[],\"cooked\":[\"run\",\"build\"],\"original\":[\"run\",\"build\"]}",
    "npm_config_audit": "true",
    "npm_config_audit_level": "low",
    "npm_config_auth_type": "legacy",
    "npm_config_before": "",
    "npm_config_bin_links": "true",
    "npm_config_browser": "",
    "npm_config_ca": "",
    "npm_config_cache": "C:\\Users\\drago\\AppData\\Roaming\\npm-cache",
    "npm_config_cache_lock_retries": "10",
    "npm_config_cache_lock_stale": "60000",
    "npm_config_cache_lock_wait": "10000",
    "npm_config_cache_max": "Infinity",
    "npm_config_cache_min": "10",
    "npm_config_cafile": "",
    "npm_config_cert": "",
    "npm_config_cidr": "",
    "npm_config_color": "true",
    "npm_config_commit_hooks": "true",
    "npm_config_depth": "Infinity",
    "npm_config_description": "true",
    "npm_config_dev": "",
    "npm_config_dry_run": "",
    "npm_config_editor": "notepad.exe",
    "npm_config_engine_strict": "",
    "npm_config_fetch_retries": "2",
    "npm_config_fetch_retry_factor": "10",
    "npm_config_fetch_retry_maxtimeout": "60000",
    "npm_config_fetch_retry_mintimeout": "10000",
    "npm_config_force": "",
    "npm_config_format_package_lock": "true",
    "npm_config_git": "git",
    "npm_config_git_tag_version": "true",
    "npm_config_global": "",
    "npm_config_globalconfig": "C:\\Users\\drago\\AppData\\Roaming\\npm\\etc\\npmrc",
    "npm_config_globalignorefile": "C:\\Users\\drago\\AppData\\Roaming\\npm\\etc\\npmignore",
    "npm_config_global_style": "",
    "npm_config_group": "",
    "npm_config_ham_it_up": "",
    "npm_config_heading": "npm",
    "npm_config_https_proxy": "",
    "npm_config_if_present": "",
    "npm_config_ignore_prepublish": "",
    "npm_config_ignore_scripts": "",
    "npm_config_init_author_email": "",
    "npm_config_init_author_name": "",
    "npm_config_init_author_url": "",
    "npm_config_init_license": "ISC",
    "npm_config_init_module": "C:\\Users\\drago\\.npm-init.js",
    "npm_config_init_version": "1.0.0",
    "npm_config_json": "",
    "npm_config_key": "",
    "npm_config_legacy_bundling": "",
    "npm_config_link": "",
    "npm_config_local_address": "",
    "npm_config_loglevel": "notice",
    "npm_config_logs_max": "10",
    "npm_config_long": "",
    "npm_config_maxsockets": "50",
    "npm_config_message": "%s",
    "npm_config_metrics_registry": "https://registry.npmjs.org/",
    "npm_config_node_gyp": "C:\\dev\\nodejs\\node_modules\\npm\\node_modules\\node-gyp\\bin\\node-gyp.js",
    "npm_config_node_options": "",
    "npm_config_node_version": "12.13.0",
    "npm_config_noproxy": "",
    "npm_config_offline": "",
    "npm_config_onload_script": "",
    "npm_config_only": "",
    "npm_config_optional": "true",
    "npm_config_otp": "",
    "npm_config_package_lock": "true",
    "npm_config_package_lock_only": "",
    "npm_config_parseable": "",
    "npm_config_prefer_offline": "",
    "npm_config_prefer_online": "",
    "npm_config_prefix": "C:\\Users\\drago\\AppData\\Roaming\\npm",
    "npm_config_preid": "",
    "npm_config_production": "",
    "npm_config_progress": "true",
    "npm_config_proxy": "",
    "npm_config_read_only": "",
    "npm_config_rebuild_bundle": "true",
    "npm_config_registry": "https://registry.npmjs.org/",
    "npm_config_rollback": "true",
    "npm_config_save": "true",
    "npm_config_save_bundle": "",
    "npm_config_save_dev": "",
    "npm_config_save_exact": "",
    "npm_config_save_optional": "",
    "npm_config_save_prefix": "^",
    "npm_config_save_prod": "",
    "npm_config_scope": "",
    "npm_config_scripts_prepend_node_path": "warn-only",
    "npm_config_script_shell": "",
    "npm_config_searchexclude": "",
    "npm_config_searchlimit": "20",
    "npm_config_searchopts": "",
    "npm_config_searchstaleness": "900",
    "npm_config_send_metrics": "",
    "npm_config_shell": "C:\\WINDOWS\\system32\\cmd.exe",
    "npm_config_shrinkwrap": "true",
    "npm_config_sign_git_commit": "",
    "npm_config_sign_git_tag": "",
    "npm_config_sso_poll_frequency": "500",
    "npm_config_sso_type": "oauth",
    "npm_config_strict_ssl": "true",
    "npm_config_tag": "latest",
    "npm_config_tag_version_prefix": "v",
    "npm_config_timing": "",
    "npm_config_tmp": "C:\\Users\\drago\\AppData\\Local\\Temp",
    "npm_config_umask": "0000",
    "npm_config_unicode": "",
    "npm_config_unsafe_perm": "true",
    "npm_config_update_notifier": "true",
    "npm_config_usage": "",
    "npm_config_user": "",
    "npm_config_userconfig": "C:\\Users\\drago\\.npmrc",
    "npm_config_user_agent": "npm/6.12.0 node/v12.13.0 win32 x64",
    "npm_config_version": "",
    "npm_config_versions": "",
    "npm_config_viewer": "browser",
    "npm_execpath": "C:\\dev\\nodejs\\node_modules\\npm\\bin\\npm-cli.js",
    "npm_lifecycle_event": "build",
    "npm_lifecycle_script": "webpack --mode production",
    "npm_node_execpath": "C:\\dev\\nodejs\\node.exe",
    "npm_package_authors_0_email": "hello@three-11.com",
    "npm_package_authors_0_name": "Three 11 Ltd",
    "npm_package_authors_0_role": "Developer",
    "npm_package_authors_1_email": "alexander.panayotov@gmail.com",
    "npm_package_authors_1_name": "Alexander Panayotov",
    "npm_package_authors_1_role": "Developer",
    "npm_package_authors_2_email": "scriptex.bg@gmail.com",
    "npm_package_authors_2_name": "Atanas Atanasov",
    "npm_package_authors_2_role": "Developer",
    "npm_package_browserslist_0": "> 1%",
    "npm_package_browserslist_1": "last 2 versions",
    "npm_package_bugs_url": "https://github.com/three11/react-template/issues",
    "npm_package_dependencies_ag_grid": "^18.1.2",
    "npm_package_dependencies_ag_grid_community": "^25.1.0",
    "npm_package_dependencies_ag_grid_enterprise": "^25.1.0",
    "npm_package_dependencies_ag_grid_react": "^25.1.0",
    "npm_package_dependencies_apexcharts": "^3.26.0",
    "npm_package_dependencies_axios": "0.19.2",
    "npm_package_dependencies_axios_mock_adapter": "^1.18.2",
    "npm_package_dependencies_babel_plugin_react_intl": "^8.2.3",
    "npm_package_dependencies_bootstrap": "^4.4.1",
    "npm_package_dependencies_classnames": "^2.2.6",
    "npm_package_dependencies_connected_react_router": "6.7.0",
    "npm_package_dependencies_date": "^1.0.2",
    "npm_package_dependencies_date_fns": "^2.16.1",
    "npm_package_dependencies_devextreme": "20.2.6",
    "npm_package_dependencies_devextreme_react": "20.2.6",
    "npm_package_dependencies_history": "4.10.1",
    "npm_package_dependencies_install": "^0.13.0",
    "npm_package_dependencies_json2csv": "^5.0.6",
    "npm_package_dependencies_jsonwebtoken": "^8.5.1",
    "npm_package_dependencies_lz_string": "^1.4.4",
    "npm_package_dependencies_moment": "2.24.0",
    "npm_package_dependencies_normalize_css": "8.0.1",
    "npm_package_dependencies_npm": "^6.14.8",
    "npm_package_dependencies_postcss_rtl": "^1.7.3",
    "npm_package_dependencies_prismjs": "^1.19.0",
    "npm_package_dependencies_quagga": "^0.12.1",
    "npm_package_dependencies_range": "^0.0.3",
    "npm_package_dependencies_rc_tooltip": "^5.1.0",
    "npm_package_dependencies_react": "^17.0.2",
    "npm_package_dependencies_reactstrap": "^8.6.0",
    "npm_package_dependencies_react_apexcharts": "^1.3.7",
    "npm_package_dependencies_react_beautiful_dnd": "^13.0.0",
    "npm_package_dependencies_react_bootstrap_sweetalert": "^5.2.0",
    "npm_package_dependencies_react_contexify": "^4.1.1",
    "npm_package_dependencies_react_country_flag": "^2.3.0",
    "npm_package_dependencies_react_date_range": "^1.0.1",
    "npm_package_dependencies_react_device_detect": "^1.17.0",
    "npm_package_dependencies_react_dnd": "^9.3.4",
    "npm_package_dependencies_react_dnd_html5_backend": "^9.3.2",
    "npm_package_dependencies_react_dnd_touch_backend": "^14.0.0",
    "npm_package_dependencies_react_dom": "16.12.0",
    "npm_package_dependencies_react_dropzone": "^11.2.0",
    "npm_package_dependencies_react_export_excel": "^0.5.3",
    "npm_package_dependencies_react_feather": "^2.0.8",
    "npm_package_dependencies_react_flatpickr": "^3.10.6",
    "npm_package_dependencies_react_hammerjs": "^1.0.1",
    "npm_package_dependencies_react_hook_form": "4.9.8",
    "npm_package_dependencies_react_inlinesvg": "1.2.0",
    "npm_package_dependencies_react_intl": "^5.8.2",
    "npm_package_dependencies_react_loadable": "5.5.0",
    "npm_package_dependencies_react_numeric_input": "^2.2.3",
    "npm_package_dependencies_react_perfect_scrollbar": "^1.5.8",
    "npm_package_dependencies_react_redux": "7.2.0",
    "npm_package_dependencies_react_ripples": "^2.2.1",
    "npm_package_dependencies_react_rnd": "^10.2.4",
    "npm_package_dependencies_react_router": "5.1.2",
    "npm_package_dependencies_react_router_dom": "5.1.2",
    "npm_package_dependencies_react_script": "^2.0.5",
    "npm_package_dependencies_react_scroll_up": "^1.3.3",
    "npm_package_dependencies_react_select": "^3.2.0",
    "npm_package_dependencies_react_tabs": "^3.2.1",
    "npm_package_dependencies_react_to_print": "^2.12.3",
    "npm_package_dependencies_react_zoom_pan_pinch": "^1.6.1",
    "npm_package_dependencies_redux": "4.0.5",
    "npm_package_dependencies_redux_debounced": "~0.5.0",
    "npm_package_dependencies_redux_devtools_extension": "2.13.8",
    "npm_package_dependencies_redux_logger": "^3.0.6",
    "npm_package_dependencies_redux_saga": "1.1.3",
    "npm_package_dependencies_redux_thunk": "^2.3.0",
    "npm_package_dependencies_scss_goodies": "1.2.0",
    "npm_package_dependencies_uuid": "^7.0.2",
    "npm_package_dependencies__ag_grid_community_all_modules": "^25.1.0",
    "npm_package_dependencies__ag_grid_community_client_side_row_model": "^25.1.0",
    "npm_package_dependencies__ag_grid_community_core": "^25.1.0",
    "npm_package_dependencies__ag_grid_community_react": "^25.1.0",
    "npm_package_dependencies__ag_grid_enterprise_all_modules": "^25.1.0",
    "npm_package_dependencies__ag_grid_enterprise_column_tool_panel": "^25.1.0",
    "npm_package_dependencies__ag_grid_enterprise_menu": "^25.1.0",
    "npm_package_dependencies__babel_core": "^7.11.6",
    "npm_package_dependencies__babel_plugin_transform_runtime": "^7.11.5",
    "npm_package_dependencies__babel_runtime": "^7.11.2",
    "npm_package_dependencies__fortawesome_fontawesome_svg_core": "^1.2.35",
    "npm_package_dependencies__fortawesome_free_solid_svg_icons": "^5.15.3",
    "npm_package_dependencies__fortawesome_react_fontawesome": "^0.1.14",
    "npm_package_dependencies__material_ui_core": "^4.11.0",
    "npm_package_dependencies__types_classnames": "^2.2.10",
    "npm_package_dependencies__types_react_flatpickr": "^3.8.1",
    "npm_package_dependencies__types_react_numeric_input": "^2.2.3",
    "npm_package_dependencies__types_react_select": "^3.0.22",
    "npm_package_dependencies__types_redux_debounced": "^0.2.19",
    "npm_package_description": "AlgoRetail",
    "npm_package_devDependencies_autoprefixer": "9.7.4",
    "npm_package_devDependencies_babel_core": "^7.0.0-bridge.0",
    "npm_package_devDependencies_babel_loader": "^7.1.5",
    "npm_package_devDependencies_copy_webpack_plugin": "5.1.1",
    "npm_package_devDependencies_cssnano": "4.1.10",
    "npm_package_devDependencies_css_hot_loader": "1.4.4",
    "npm_package_devDependencies_css_loader": "3.4.2",
    "npm_package_devDependencies_enzyme": "3.11.0",
    "npm_package_devDependencies_enzyme_adapter_react_16": "1.15.2",
    "npm_package_devDependencies_enzyme_to_json": "3.4.4",
    "npm_package_devDependencies_eslint": "6.8.0",
    "npm_package_devDependencies_eslint_config_prettier": "6.10.0",
    "npm_package_devDependencies_eslint_plugin_jest": "^23.13.1",
    "npm_package_devDependencies_eslint_plugin_react": "7.18.3",
    "npm_package_devDependencies_file_loader": "5.1.0",
    "npm_package_devDependencies_html_loader": "0.5.5",
    "npm_package_devDependencies_html_webpack_plugin": "3.2.0",
    "npm_package_devDependencies_image_webpack_loader": "6.0.0",
    "npm_package_devDependencies_jest": "25.1.0",
    "npm_package_devDependencies_mini_css_extract_plugin": "^0.9.0",
    "npm_package_devDependencies_node_sass": "^4.14.1",
    "npm_package_devDependencies_offline_plugin": "5.0.7",
    "npm_package_devDependencies_postcss": "7.0.27",
    "npm_package_devDependencies_postcss_easy_import": "3.0.0",
    "npm_package_devDependencies_postcss_flexbugs_fixes": "4.2.0",
    "npm_package_devDependencies_postcss_loader": "3.0.0",
    "npm_package_devDependencies_postcss_url": "8.0.0",
    "npm_package_devDependencies_postcss_utilities": "0.8.4",
    "npm_package_devDependencies_prop_types": "15.7.2",
    "npm_package_devDependencies_react_app_rewire_postcss": "^3.0.2",
    "npm_package_devDependencies_react_hot_loader": "4.12.19",
    "npm_package_devDependencies_sass_loader": "8.0.2",
    "npm_package_devDependencies_stylelint": "13.2.0",
    "npm_package_devDependencies_stylelint_config_recommended": "3.0.0",
    "npm_package_devDependencies_style_loader": "1.1.3",
    "npm_package_devDependencies_svg_inline_loader": "0.8.2",
    "npm_package_devDependencies_terser_webpack_plugin": "2.3.5",
    "npm_package_devDependencies_ts_jest": "25.2.1",
    "npm_package_devDependencies_ts_loader": "6.2.1",
    "npm_package_devDependencies_ts_node": "8.6.2",
    "npm_package_devDependencies_typescript": "3.8.2",
    "npm_package_devDependencies_url_loader": "3.0.0",
    "npm_package_devDependencies_webpack": "^4.41.6",
    "npm_package_devDependencies_webpack_cli": "3.3.11",
    "npm_package_devDependencies_webpack_dev_server": "3.10.3",
    "npm_package_devDependencies_webpack_hot_middleware": "2.25.0",
    "npm_package_devDependencies_webpack_pwa_manifest": "4.2.0",
    "npm_package_devDependencies__babel_core": "^7.11.6",
    "npm_package_devDependencies__babel_plugin_proposal_class_properties": "^7.10.4",
    "npm_package_devDependencies__babel_preset_env": "^7.11.5",
    "npm_package_devDependencies__babel_preset_react": "^7.10.4",
    "npm_package_devDependencies__babel_preset_typescript": "^7.13.0",
    "npm_package_devDependencies__hot_loader_react_dom": "16.11.0",
    "npm_package_devDependencies__typescript_eslint_eslint_plugin": "2.20.0",
    "npm_package_devDependencies__typescript_eslint_parser": "2.20.0",
    "npm_package_devDependencies__types_copy_webpack_plugin": "5.0.0",
    "npm_package_devDependencies__types_enzyme": "3.10.5",
    "npm_package_devDependencies__types_html_webpack_plugin": "3.2.2",
    "npm_package_devDependencies__types_jest": "25.1.3",
    "npm_package_devDependencies__types_lz_string": "^1.3.34",
    "npm_package_devDependencies__types_mini_css_extract_plugin": "0.9.1",
    "npm_package_devDependencies__types_node": "^13.13.14",
    "npm_package_devDependencies__types_react": "16.9.22",
    "npm_package_devDependencies__types_reactstrap": "^8.5.1",
    "npm_package_devDependencies__types_react_beautiful_dnd": "^12.1.1",
    "npm_package_devDependencies__types_react_dom": "16.9.5",
    "npm_package_devDependencies__types_react_hot_loader": "4.1.1",
    "npm_package_devDependencies__types_react_inlinesvg": "1.0.0",
    "npm_package_devDependencies__types_react_loadable": "5.5.3",
    "npm_package_devDependencies__types_react_redux": "7.1.7",
    "npm_package_devDependencies__types_react_router": "5.1.4",
    "npm_package_devDependencies__types_react_router_dom": "5.1.3",
    "npm_package_devDependencies__types_react_tabs": "^2.3.2",
    "npm_package_devDependencies__types_redux_logger": "^3.0.8",
    "npm_package_devDependencies__types_terser_webpack_plugin": "2.2.0",
    "npm_package_devDependencies__types_uuid": "^7.0.0",
    "npm_package_devDependencies__types_webpack": "4.41.6",
    "npm_package_devDependencies__types_webpack_dev_server": "3.10.0",
    "npm_package_gitHead": "d8194c9ba42953e88fd6de3e36b2e694214fc5ca",
    "npm_package_homepage": "https://github.com/three11/react-template#readme",
    "npm_package_jest_moduleDirectories_0": "node_modules",
    "npm_package_jest_moduleDirectories_1": "src",
    "npm_package_jest_moduleFileExtensions_0": "ts",
    "npm_package_jest_moduleFileExtensions_1": "tsx",
    "npm_package_jest_moduleFileExtensions_2": "js",
    "npm_package_jest_moduleFileExtensions_3": "jsx",
    "npm_package_jest_moduleFileExtensions_4": "json",
    "npm_package_jest_moduleFileExtensions_5": "node",
    "npm_package_jest_moduleNameMapper___assets______": "<rootDir>/src/assets/$1",
    "npm_package_jest_moduleNameMapper___components": "<rootDir>/src/components",
    "npm_package_jest_moduleNameMapper___containers______": "<rootDir>/src/containers/$1",
    "npm_package_jest_moduleNameMapper___extensions": "<rootDir>/src/extensions",
    "npm_package_jest_moduleNameMapper___root______": "<rootDir>/$1",
    "npm_package_jest_moduleNameMapper___src______": "<rootDir>/src/$1",
    "npm_package_jest_moduleNameMapper___utilities": "<rootDir>/src/utilities",
    "npm_package_jest_moduleNameMapper___vuexy______": "<rootDir>/src/@vuexy/$1",
    "npm_package_jest_moduleNameMapper____css_less_sass_scss__": "<rootDir>/test-config/StyleMock.js",
    "npm_package_jest_moduleNameMapper____jpg_jpeg_png_gif_ico_eot_otf_webp_svg_ttf_woff_woff2_mp4_webm_wav_mp3_m4a_aac_oga__": "<rootDir>/test-config/FileMock.js",
    "npm_package_jest_setupFiles_0": "<rootDir>/test-config/index.js",
    "npm_package_jest_setupFiles_1": "<rootDir>/test-config/LocalStorageMock.js",
    "npm_package_jest_snapshotSerializers_0": "enzyme-to-json/serializer",
    "npm_package_jest_testPathIgnorePatterns_0": "<rootDir>/node_modules/",
    "npm_package_jest_testPathIgnorePatterns_1": "<rootDir>/dist/",
    "npm_package_jest_testPathIgnorePatterns_2": "<rootDir>/test-config/",
    "npm_package_jest_testRegex": ".*\\.(test|spec)\\.(j|tsx?)$",
    "npm_package_jest_transform____css_less_sass_scss__": "<rootDir>/test-config/StyleMock.js",
    "npm_package_jest_transform____jpg_jpeg_png_gif_ico_eot_otf_webp_svg_ttf_woff_woff2_mp4_webm_wav_mp3_m4a_aac_oga__": "<rootDir>/test-config/FileMock.js",
    "npm_package_jest_transform______tsx__": "ts-jest",
    "npm_package_jest_verbose": "false",
    "npm_package_keywords_0": "React",
    "npm_package_keywords_1": "Starter",
    "npm_package_keywords_2": "Template",
    "npm_package_keywords_3": "SPA",
    "npm_package_keywords_4": "JavaScript",
    "npm_package_license": "MIT",
    "npm_package_main": "./src/index.js",
    "npm_package_name": "@three11/react-template",
    "npm_package_private": "true",
    "npm_package_readmeFilename": "README.md",
    "npm_package_repository_type": "git",
    "npm_package_repository_url": "git+ssh://git@github.com/three11/react-template.git",
    "npm_package_scripts_build": "webpack --mode production",
    "npm_package_scripts_build2": "rm -rf ./dist && webpack --mode production",
    "npm_package_scripts_lint": "npm run lint:ts && npm run lint:scss",
    "npm_package_scripts_lint_scss": "stylelint './src/**/*.scss' --config .stylelintrc",
    "npm_package_scripts_lint_ts": "eslint 'src/**/*.{ts,tsx}'",
    "npm_package_scripts_start": "webpack-dev-server --mode development --open --env.dev",
    "npm_package_scripts_test": "jest",
    "npm_package_version": "1.0.0",
    "NUMBER_OF_PROCESSORS": "4",
    "OLDPWD": "C:/projects",
    "OneDrive": "C:\\Users\\drago\\OneDrive",
    "OneDriveConsumer": "C:\\Users\\drago\\OneDrive",
    "ORIGINAL_XDG_CURRENT_DESKTOP": "undefined",
    "OS": "Windows_NT",
    "Path": "C:\\dev\\nodejs\\node_modules\\npm\\node_modules\\npm-lifecycle\\node-gyp-bin;C:\\projects\\Algo\\node_modules\\.bin;C:\\Program Files\\Git\\mingw64\\bin;C:\\Program Files\\Git\\usr\\bin;C:\\Users\\drago\\bin;C:\\Program Files\\ImageMagick-7.0.9-Q16;C:\\WINDOWS\\system32;C:\\WINDOWS;C:\\WINDOWS\\System32\\Wbem;C:\\WINDOWS\\System32\\WindowsPowerShell\\v1.0;C:\\WINDOWS\\System32\\OpenSSH;C:\\Program Files (x86)\\Intel\\Intel(R) Management Engine Components\\DAL;C:\\Program Files\\Intel\\Intel(R) Management Engine Components\\DAL;C:\\Program Files\\Git\\cmd;C:\\dev\\nodejs;C:\\dev\\TortoiseSVN\\bin;C:\\Program Files\\MySQL\\MySQL Shell 8.0\\bin;C:\\Users\\drago\\AppData\\Local\\Microsoft\\WindowsApps;C:\\Users\\drago\\AppData\\Local\\Programs\\Microsoft VS Code\\bin;C:\\Users\\drago\\AppData\\Roaming\\npm",
    "PATH": "C:\\dev\\nodejs\\node_modules\\npm\\node_modules\\npm-lifecycle\\node-gyp-bin;C:\\projects\\Algo\\node_modules\\.bin;C:\\Program Files\\Git\\mingw64\\bin;C:\\Program Files\\Git\\usr\\bin;C:\\Users\\drago\\bin;C:\\Program Files\\ImageMagick-7.0.9-Q16;C:\\WINDOWS\\system32;C:\\WINDOWS;C:\\WINDOWS\\System32\\Wbem;C:\\WINDOWS\\System32\\WindowsPowerShell\\v1.0;C:\\WINDOWS\\System32\\OpenSSH;C:\\Program Files (x86)\\Intel\\Intel(R) Management Engine Components\\DAL;C:\\Program Files\\Intel\\Intel(R) Management Engine Components\\DAL;C:\\Program Files\\Git\\cmd;C:\\dev\\nodejs;C:\\dev\\TortoiseSVN\\bin;C:\\Program Files\\MySQL\\MySQL Shell 8.0\\bin;C:\\Users\\drago\\AppData\\Local\\Microsoft\\WindowsApps;C:\\Users\\drago\\AppData\\Local\\Programs\\Microsoft VS Code\\bin;C:\\Users\\drago\\AppData\\Roaming\\npm",
    "PATHEXT": ".COM;.EXE;.BAT;.CMD;.VBS;.VBE;.JSE;.WSF;.WSH;.MSC",
    "PLINK_PROTOCOL": "ssh",
    "PROCESSOR_ARCHITECTURE": "AMD64",
    "PROCESSOR_IDENTIFIER": "Intel64 Family 6 Model 158 Stepping 11, GenuineIntel",
    "PROCESSOR_LEVEL": "6",
    "PROCESSOR_REVISION": "9e0b",
    "ProgramData": "C:\\ProgramData",
    "PROGRAMFILES": "C:\\Program Files",
    "ProgramFiles(x86)": "C:\\Program Files (x86)",
    "ProgramW6432": "C:\\Program Files",
    "PROMPT": "$P$G",
    "PSModulePath": "C:\\Program Files\\WindowsPowerShell\\Modules;C:\\WINDOWS\\system32\\WindowsPowerShell\\v1.0\\Modules",
    "PUBLIC": "C:\\Users\\Public",
    "PWD": "C:/projects/Algo",
    "SESSIONNAME": "Console",
    "SHLVL": "2",
    "SYSTEMDRIVE": "C:",
    "SYSTEMROOT": "C:\\WINDOWS",
    "TEMP": "C:\\Users\\drago\\AppData\\Local\\Temp",
    "TERM": "cygwin",
    "TERM_PROGRAM": "vscode",
    "TERM_PROGRAM_VERSION": "1.55.2",
    "TMP": "C:\\Users\\drago\\AppData\\Local\\Temp",
    "USERDOMAIN": "DESKTOP-2HER3ES",
    "USERDOMAIN_ROAMINGPROFILE": "DESKTOP-2HER3ES",
    "USERNAME": "drago",
    "USERPROFILE": "C:\\Users\\drago",
    "VSCODE_GIT_ASKPASS_MAIN": "c:\\Users\\drago\\AppData\\Local\\Programs\\Microsoft VS Code\\resources\\app\\extensions\\git\\dist\\askpass-main.js",
    "VSCODE_GIT_ASKPASS_NODE": "C:\\Users\\drago\\AppData\\Local\\Programs\\Microsoft VS Code\\Code.exe",
    "VSCODE_GIT_IPC_HANDLE": "\\\\.\\pipe\\vscode-git-9b0254692a-sock",
    "WINDIR": "C:\\WINDOWS",
    "_": "C:/dev/nodejs/node.exe",
    "_prog": "node"
  },
  "sharedObjects": [
    "C:\\dev\\nodejs\\node.exe",
    "C:\\WINDOWS\\SYSTEM32\\ntdll.dll",
    "C:\\WINDOWS\\System32\\KERNEL32.DLL",
    "C:\\WINDOWS\\System32\\KERNELBASE.dll",
    "C:\\WINDOWS\\System32\\WS2_32.dll",
    "C:\\WINDOWS\\System32\\RPCRT4.dll",
    "C:\\WINDOWS\\System32\\ADVAPI32.dll",
    "C:\\WINDOWS\\System32\\msvcrt.dll",
    "C:\\WINDOWS\\System32\\sechost.dll",
    "C:\\WINDOWS\\System32\\USER32.dll",
    "C:\\WINDOWS\\System32\\win32u.dll",
    "C:\\WINDOWS\\System32\\GDI32.dll",
    "C:\\WINDOWS\\System32\\gdi32full.dll",
    "C:\\WINDOWS\\System32\\msvcp_win.dll",
    "C:\\WINDOWS\\System32\\ucrtbase.dll",
    "C:\\WINDOWS\\System32\\PSAPI.DLL",
    "C:\\WINDOWS\\System32\\CRYPT32.dll",
    "C:\\WINDOWS\\System32\\bcrypt.dll",
    "C:\\WINDOWS\\SYSTEM32\\dbghelp.dll",
    "C:\\WINDOWS\\SYSTEM32\\IPHLPAPI.DLL",
    "C:\\WINDOWS\\SYSTEM32\\USERENV.dll",
    "C:\\WINDOWS\\SYSTEM32\\WINMM.dll",
    "C:\\WINDOWS\\System32\\IMM32.DLL",
    "C:\\WINDOWS\\SYSTEM32\\powrprof.dll",
    "C:\\WINDOWS\\SYSTEM32\\UMPDC.dll",
    "C:\\WINDOWS\\system32\\uxtheme.dll",
    "C:\\WINDOWS\\System32\\combase.dll",
    "C:\\WINDOWS\\system32\\mswsock.dll",
    "C:\\WINDOWS\\SYSTEM32\\kernel.appcore.dll",
    "C:\\WINDOWS\\System32\\bcryptprimitives.dll",
    "C:\\WINDOWS\\System32\\NSI.dll",
    "C:\\WINDOWS\\SYSTEM32\\dhcpcsvc6.DLL",
    "C:\\WINDOWS\\SYSTEM32\\dhcpcsvc.DLL",
    "C:\\WINDOWS\\SYSTEM32\\DNSAPI.dll",
    "C:\\WINDOWS\\system32\\napinsp.dll",
    "C:\\WINDOWS\\system32\\pnrpnsp.dll",
    "C:\\WINDOWS\\system32\\wshbth.dll",
    "C:\\WINDOWS\\system32\\NLAapi.dll",
    "C:\\WINDOWS\\System32\\winrnr.dll"
  ]
}