<svg xmlns="http://www.w3.org/2000/svg" width="40" height="39" viewBox="0 0 40 39">
    <g fill="none" fill-rule="evenodd">
        <g>
            <g>
                <path d="M0 0L40 0 40 38.333 0 38.333z" transform="translate(-59 -465) translate(59 465)"/>
                <path fill="#31BAAB" fill-rule="nonzero" d="M35 17.569L11.383 17.569 17.35 11.835 15 9.583 5 19.167 15 28.75 17.35 26.498 11.383 20.764 35 20.764z" transform="translate(-59 -465) translate(59 465)"/>
            </g>
        </g>
    </g>
</svg>
