<svg xmlns="http://www.w3.org/2000/svg" width="24" height="24" viewBox="0 0 24 24">
    <g fill="none" fill-rule="evenodd">
        <g fill="#FFF">
            <g>
                <g>
                    <g>
                        <g>
                            <path d="M1.5 2.5h2.25v5h.75V0h2.25v7.5h1.353L8.635 0h3.968l-.532 7.5h1.054v-4h2.25v4h1.875v3.333c0 .537-.253 1.014-.647 1.319-.252.214-.553.348-.853.348-.055-.003-.11 0-.167 0H2.25c-.825 0-1.5-.75-1.5-1.667V7.5h.75v-5z" transform="translate(-1392 -653) translate(1115 486) translate(169 167) translate(108) translate(3 6)"/>
                        </g>
                    </g>
                </g>
            </g>
        </g>
    </g>
</svg>
