<svg xmlns="http://www.w3.org/2000/svg" width="25" height="24" viewBox="0 0 25 24">
    <g fill="none" fill-rule="evenodd">
        <g fill="#000" fill-rule="nonzero">
            <g>
                <g>
                    <g>
                        <path d="M17.215 14.537c-.928-.084-1.836-.321-2.686-.701-.416-.187-.906-.016-1.115.39l-.583 1.157c-1.77-.982-3.23-2.441-4.214-4.212l1.154-.582c.407-.208.58-.698.392-1.114-.38-.85-.618-1.758-.703-2.686-.035-.443-.402-.785-.846-.789H6.43C6.192 6 6 6.192 6 6.429c-.003 1.731.383 3.44 1.13 5.003 1.147 2.375 3.065 4.292 5.44 5.438 1.561.747 3.27 1.133 5.001 1.13.237 0 .429-.192.429-.429v-2.185c0-.445-.342-.814-.785-.849z" transform="translate(-1048.000000, -507.000000) translate(710.000000, 235.000000) translate(125.000000, 266.000000) translate(213.708333, 6.000000)"/>
                    </g>
                </g>
            </g>
        </g>
    </g>
</svg>
