<svg xmlns="http://www.w3.org/2000/svg" width="24" height="24" viewBox="0 0 24 24">
    <g fill="none" fill-rule="evenodd">
        <g fill="#5C809A" fill-rule="nonzero">
            <g>
                <g>
                    <g>
                        <g>
                            <path d="M17.25 7.5h-1.5v1.667h1.5V7.5zm0 3.333h-1.5V12.5c.75 0 1.5-.833 1.5-1.667zM12.603 0H8.635l-.532 7.5h3.968l.532-7.5zm2.772 3.5h-2.25v4h2.25v-4zm-13.125 9h13.333c.92 0 1.667-.746 1.667-1.667V7.5H.75v3.333c0 .917.675 1.667 1.5 1.667zm9-1.667h-1.5V12.5h1.5v-1.667zm3 0h-1.5V12.5h1.5v-1.667zM6.75 0H4.5v7.5h2.25V0zm-3 2.5H1.5v5h2.25v-5z" transform="translate(-1873 -193) translate(1780) translate(23 193) translate(70) translate(3 6)"/>
                        </g>
                    </g>
                </g>
            </g>
        </g>
    </g>
</svg>
