<svg xmlns="http://www.w3.org/2000/svg" width="24" height="24" viewBox="0 0 24 24">
    <g fill="none" fill-rule="evenodd">
        <g fill="#000" fill-rule="nonzero">
            <g>
                <g>
                    <g>
                        <g>
                            <path d="M9 .41c-4.09 0-7.585 2.544-9 6.135 1.415 3.592 4.91 6.137 9 6.137s7.585-2.545 9-6.137C16.585 2.954 13.09.41 9 .41zm0 10.226c-2.258 0-4.09-1.832-4.09-4.09 0-2.259 1.832-4.091 4.09-4.091s4.09 1.832 4.09 4.09c0 2.259-1.832 4.091-4.09 4.091zm0-6.545c-1.358 0-2.455 1.096-2.455 2.454C6.545 7.904 7.642 9 9 9s2.455-1.096 2.455-2.455c0-1.358-1.097-2.454-2.455-2.454z" transform="translate(-1631 -341) translate(1406 320) translate(1) translate(224 21) translate(3 6)"/>
                        </g>
                    </g>
                </g>
            </g>
        </g>
    </g>
</svg>
