<svg xmlns="http://www.w3.org/2000/svg" width="24" height="24" viewBox="0 0 24 24">
    <g fill="none" fill-rule="evenodd">
        <g>
            <g>
                <g>
                    <g>
                        <path d="M0 0L24 0 24 24 0 24z" transform="translate(-1193 -19) translate(1045 10) translate(146 9) translate(2)"/>
                        <path fill="#5C809A" fill-rule="nonzero" d="M15.5 14h-.79l-.28-.27C15.41 12.59 16 11.11 16 9.5 16 5.91 13.09 3 9.5 3S3 5.91 3 9.5 5.91 16 9.5 16c1.61 0 3.09-.59 4.23-1.57l.27.28v.79l3.83 3.494 1.49-1.49L15.5 14zm-6 0C7.01 14 5 11.99 5 9.5S7.01 5 9.5 5 14 7.01 14 9.5 11.99 14 9.5 14z" transform="translate(-1193 -19) translate(1045 10) translate(146 9) translate(2)"/>
                        <path fill="#5C809A" fill-rule="nonzero" d="M12 10L10 10 10 12 9 12 9 10 7 10 7 9 9 9 9 7 10 7 10 9 12 9z" transform="translate(-1193 -19) translate(1045 10) translate(146 9) translate(2)"/>
                    </g>
                </g>
            </g>
        </g>
    </g>
</svg>
