<svg xmlns="http://www.w3.org/2000/svg" width="24" height="24" viewBox="0 0 24 24">
    <g fill="none" fill-rule="evenodd">
        <g>
            <g>
                <g>
                    <g>
                        <path d="M0 0L24 0 24 24 0 24z" transform="translate(-1856 -96) translate(40 92) translate(1575) matrix(-1 0 0 1 265 4)"/>
                        <path fill="#1E1E20" fill-rule="nonzero" d="M21 11L6.83 11 10.41 7.41 9 6 3 12 9 18 10.41 16.59 6.83 13 21 13z" transform="translate(-1856 -96) translate(40 92) translate(1575) matrix(-1 0 0 1 265 4)"/>
                    </g>
                </g>
            </g>
        </g>
    </g>
</svg>
