<svg xmlns="http://www.w3.org/2000/svg" width="1.5rem" height="1.2rem" viewBox="0 0 25 24">
    <g fill="none" fill-rule="evenodd">
        <g>
            <g>
                <g>
                    <g>
                        <g>
                            <path fill="#000" fill-rule="nonzero" d="M7.125 8.708H5.542v1.584h1.583V8.708zm3.167 0H8.708v1.584h1.584V8.708zm3.166 0h-1.583v1.584h1.583V8.708zm1.584-5.541h-.792V1.583h-1.583v1.584H6.333V1.583H4.75v1.584h-.792c-.878 0-1.575.712-1.575 1.583l-.008 11.083c0 .871.705 1.584 1.583 1.584h11.084c.87 0 1.583-.713 1.583-1.584V4.75c0-.87-.713-1.583-1.583-1.583zm0 12.666H3.958V7.125h11.084v8.708z" transform="translate(-980 -427) translate(670 347) translate(298 74) translate(12.708 6) translate(3 2)"/>
                            <path d="M0 0L19 0 19 19 0 19z" transform="translate(-980 -427) translate(670 347) translate(298 74) translate(12.708 6) translate(3 2)"/>
                        </g>
                    </g>
                </g>
            </g>
        </g>
    </g>
</svg>
