<svg xmlns="http://www.w3.org/2000/svg" width="18" height="17" viewBox="0 0 18 17">
    <g fill="none" fill-rule="evenodd">
        <g fill-rule="nonzero">
            <g>
                <g>
                    <g transform="translate(-73 -205) translate(32 92) translate(32 104) translate(9 9)">
                        <rect width="9" height="12.375" x="9" y="2.25" fill="#4EAC4D" rx=".563"/>
                        <path fill="#FFF" d="M11.813 5.625h-2.25c-.311 0-.563-.252-.563-.563 0-.31.252-.562.563-.562h2.25c.31 0 .562.252.562.563 0 .31-.252.562-.563.562zM11.813 7.875h-2.25c-.311 0-.563-.252-.563-.563 0-.31.252-.562.563-.562h2.25c.31 0 .562.252.562.563 0 .31-.252.562-.563.562zM11.813 10.125h-2.25c-.311 0-.563-.252-.563-.563 0-.31.252-.562.563-.562h2.25c.31 0 .562.252.562.563 0 .31-.252.562-.563.562zM11.813 12.375h-2.25c-.311 0-.563-.252-.563-.563 0-.31.252-.562.563-.562h2.25c.31 0 .562.252.562.563 0 .31-.252.562-.563.562zM15.188 5.625h-1.126c-.31 0-.562-.252-.562-.563 0-.31.252-.562.563-.562h1.124c.311 0 .563.252.563.563 0 .31-.252.562-.563.562zM15.188 7.875h-1.126c-.31 0-.562-.252-.562-.563 0-.31.252-.562.563-.562h1.124c.311 0 .563.252.563.563 0 .31-.252.562-.563.562zM15.188 10.125h-1.126c-.31 0-.562-.252-.562-.563 0-.31.252-.562.563-.562h1.124c.311 0 .563.252.563.563 0 .31-.252.562-.563.562zM15.188 12.375h-1.126c-.31 0-.562-.252-.562-.563 0-.31.252-.562.563-.562h1.124c.311 0 .563.252.563.563 0 .31-.252.562-.563.562z"/>
                        <path fill="#2E7D32" d="M9.921.13C9.793.022 9.623-.02 9.46.01l-9 1.688C.193 1.748 0 1.979 0 2.25v12.375c0 .27.193.503.459.552l9 1.688c.034.006.069.01.104.01.31 0 .562-.252.562-.563V.563c0-.167-.075-.326-.204-.433z"/>
                        <path fill="#FAFAFA" d="M7.736 10.317L5.963 8.284l1.8-2.313c.128-.158.161-.373.086-.563-.075-.189-.247-.323-.45-.35-.202-.026-.402.06-.524.223L5.202 7.425 3.798 5.817c-.205-.232-.559-.255-.792-.05-.233.203-.258.556-.055.79L4.5 8.326l-1.57 2.017c-.128.158-.161.374-.086.563.076.19.248.323.45.35.202.026.403-.058.524-.222l1.436-1.844 1.636 1.869c.131.152.335.222.533.184.198-.039.36-.18.425-.371.064-.191.022-.402-.111-.554h-.002z"/>
                    </g>
                </g>
            </g>
        </g>
    </g>
</svg>
