<svg xmlns="http://www.w3.org/2000/svg" width="16" height="16" viewBox="0 0 16 16">
    <g fill="none" fill-rule="evenodd">
        <g>
            <g transform="translate(-1286 -278) translate(1286 278)">
                <path fill="#000" fill-rule="nonzero" d="M2 12h3v-1.333H2V12zm0-8v1.333h7V4H2zm0 4.667h5V7.333H2v1.334z"/>
                <path d="M0 0L16 0 16 16 0 16z"/>
                <circle cx="10" cy="10" r="2" fill="#000"/>
            </g>
        </g>
    </g>
</svg>
